{
  "ownerId": "your-owner-id",
  "prefix": "prefix-for-bot",
  "token": "your bot token",
  "debug": "add a boolean without quotes whether you want to set debug mode on",
  "developersRoleId": "if you want to mention developer role on bug report add the role id here",
  "redditUsername": "Reddit Username for app",
  "redditPassword": "Reddit Password",
  "redditAppId": "Reddit App ID",
  "redditAppSecret": "Reddit App Secret",
  "redditUserAgent": "Troy/<version> by <Reddit Username>",
  "redisHost": "Redis host, Probably 127.0.0.1",
  "redisPass": "Your redis password, If it has any.",
  "statCordApi": "your statcord api key goes here",
  "stackoverflowApiKey": "your stackoverflow key goes here.",
  "geniusApiKey": "your genius api key, It is optional though."
}
